<svg width="443" height="255" viewBox="0 0 443 255" fill="none" xmlns="http://www.w3.org/2000/svg">
    <g clip-path="url(#clip0_141_766)">
        <path d="M180.3 29.2C180.3 27.7 179.1 26.5 177.6 26.5H148V31.9H177.6C179.1 31.9 180.3 30.7 180.3 29.2Z" fill="#E8E8FF"/>
        <path d="M177.2 20.2C177.2 18.7 176 17.5 174.5 17.5H148V22.9H174.4C175.9 22.9 177.2 21.7 177.2 20.2Z" fill="#E8E8FF"/>
        <path d="M177.2 54.9002C177.2 53.4002 176 52.2002 174.5 52.2002H148V57.6002H174.4C175.9 57.6002 177.2 56.4002 177.2 54.9002Z" fill="#E8E8FF"/>
        <path d="M162.8 11.4002C162.8 9.9002 161.6 8.7002 160.1 8.7002H148V14.1002H160.1C161.6 14.1002 162.8 12.9002 162.8 11.4002Z" fill="#E8E8FF"/>
        <path d="M162.8 63.7C162.8 62.2 161.6 61 160.1 61H148V66.4H160.1C161.6 66.5 162.8 65.2 162.8 63.7Z" fill="#E8E8FF"/>
        <path d="M151.1 2.7C151.1 1.2 149.9 0 148.4 0H148V5.4H148.4C149.9 5.4 151.1 4.2 151.1 2.7Z" fill="#E8E8FF"/>
        <path d="M151.1 71.2C151.1 69.7 149.9 68.5 148.4 68.5H148V73.9H148.4C149.9 73.9 151.1 72.6 151.1 71.2Z" fill="#E8E8FF"/>
        <path d="M180.3 37.7996C180.3 36.2996 179.1 35.0996 177.6 35.0996H148V40.4996H177.6C179.1 40.4996 180.3 39.1996 180.3 37.7996Z" fill="#E8E8FF"/>
        <path d="M180.3 46.4002C180.3 44.9002 179.1 43.7002 177.6 43.7002H148V49.1002H177.6C179.1 49.2002 180.3 47.9002 180.3 46.4002Z" fill="#E8E8FF"/>
        <path d="M192.4 31.9H251.7C253.2 31.9 254.4 30.7 254.4 29.2C254.4 27.7 253.1 26.5 251.6 26.5H192.4C190.9 26.5 189.7 27.7 189.7 29.2C189.7 30.7 190.9 31.9 192.4 31.9Z" fill="#E8E8FF"/>
        <path d="M195.6 22.9H248.5C250 22.9 251.2 21.7 251.2 20.2C251.2 18.7 250 17.5 248.5 17.5H195.6C194.1 17.5 192.9 18.7 192.9 20.2C192.9 21.7 194.1 22.9 195.6 22.9Z" fill="#E8E8FF"/>
        <path d="M251.2 54.9002C251.2 53.4002 250 52.2002 248.5 52.2002H195.6C194.1 52.2002 192.9 53.4002 192.9 54.9002C192.9 56.4002 194.1 57.6002 195.6 57.6002H248.5C250 57.6002 251.2 56.4002 251.2 54.9002Z" fill="#E8E8FF"/>
        <path d="M209.9 14.1002H234.2C235.7 14.1002 236.9 12.9002 236.9 11.4002C236.9 9.9002 235.7 8.7002 234.2 8.7002H209.9C208.4 8.7002 207.2 9.9002 207.2 11.4002C207.2 12.9002 208.4 14.1002 209.9 14.1002Z" fill="#E8E8FF"/>
        <path d="M236.9 63.7C236.9 62.2 235.7 61 234.2 61H209.9C208.4 61 207.2 62.2 207.2 63.7C207.2 65.2 208.4 66.4 209.9 66.4H234.2C235.6 66.5 236.9 65.2 236.9 63.7Z" fill="#E8E8FF"/>
        <path d="M221.6 5.4H222.4C223.9 5.4 225.1 4.2 225.1 2.7C225.1 1.2 223.9 0 222.4 0H221.6C220.1 0 218.9 1.2 218.9 2.7C218.9 4.2 220.1 5.4 221.6 5.4Z" fill="#E8E8FF"/>
        <path d="M222.4 68.4004H221.6C220.1 68.4004 218.9 69.6004 218.9 71.1004C218.9 72.6004 220.1 73.8004 221.6 73.8004H222.4C223.9 73.8004 225.1 72.6004 225.1 71.1004C225.1 69.7004 223.9 68.4004 222.4 68.4004Z" fill="#E8E8FF"/>
        <path d="M192.4 40.4H251.7C253.2 40.4 254.4 39.2 254.4 37.7C254.4 36.3 253.1 35 251.6 35H192.4C190.9 35 189.7 36.2 189.7 37.7C189.7 39.2 190.9 40.4 192.4 40.4Z" fill="#E8E8FF"/>
        <path d="M192.4 49.1002H251.7C253.1 49.2002 254.4 47.9002 254.4 46.4002C254.4 44.9002 253.2 43.7002 251.7 43.7002H192.4C190.9 43.7002 189.7 44.9002 189.7 46.4002C189.7 47.9002 190.9 49.1002 192.4 49.1002Z" fill="#E8E8FF"/>
        <path d="M152.7 90.2C152.7 91.7 153.9 92.9 155.4 92.9H214.7C216.2 92.9 217.4 91.7 217.4 90.2C217.4 88.7 216.1 87.5 214.6 87.5H155.4C153.9 87.5 152.7 88.7 152.7 90.2Z" fill="#E8E8FF"/>
        <path d="M155.9 81.2C155.9 82.7 157.1 83.9 158.6 83.9H211.5C213 83.9 214.2 82.7 214.2 81.2C214.2 79.7 213 78.5 211.5 78.5H158.5C157 78.5 155.9 79.7 155.9 81.2Z" fill="#E8E8FF"/>
        <path d="M158.5 118.6H211.4C212.9 118.6 214.1 117.4 214.1 115.9C214.1 114.4 212.9 113.2 211.4 113.2H158.5C157 113.2 155.8 114.4 155.8 115.9C155.8 117.4 157 118.6 158.5 118.6Z" fill="#E8E8FF"/>
        <path d="M170.2 72.4002C170.2 73.9002 171.4 75.1002 172.9 75.1002H197.2C198.7 75.1002 199.9 73.9002 199.9 72.4002C199.9 70.9002 198.7 69.7002 197.2 69.7002H172.9C171.4 69.7002 170.2 70.9002 170.2 72.4002Z" fill="#E8E8FF"/>
        <path d="M172.9 127.4H197.2C198.6 127.5 199.9 126.2 199.9 124.7C199.9 123.2 198.7 122 197.2 122H172.9C171.4 122 170.2 123.2 170.2 124.7C170.2 126.2 171.4 127.4 172.9 127.4Z" fill="#E8E8FF"/>
        <path d="M184.5 66.4H185.3C186.8 66.4 188 65.2 188 63.7C188 62.2 186.9 61 185.4 61H184.6C183.1 61 181.9 62.2 181.9 63.7C181.9 65.2 183 66.4 184.5 66.4Z" fill="#E8E8FF"/>
        <path d="M184.5 129.4C183 129.4 181.8 130.6 181.8 132.1C181.8 133.6 183 134.8 184.5 134.8H185.3C186.8 134.8 188 133.6 188 132.1C188 130.7 186.8 129.4 185.3 129.4H184.5Z" fill="#E8E8FF"/>
        <path d="M155.4 101.4H214.7C216.2 101.4 217.4 100.2 217.4 98.7C217.4 97.3 216.1 96 214.6 96H155.4C153.9 96 152.7 97.2 152.7 98.7C152.7 100.2 153.9 101.4 155.4 101.4Z" fill="#E8E8FF"/>
        <path d="M155.4 110.1H214.7C216.1 110.2 217.4 108.9 217.4 107.4C217.4 105.9 216.2 104.7 214.7 104.7H155.4C153.9 104.7 152.7 105.9 152.7 107.4C152.7 108.9 153.9 110.1 155.4 110.1Z" fill="#E8E8FF"/>
        <path d="M288.7 87.5H229.5C228 87.5 226.8 88.7 226.8 90.2C226.8 91.7 228 92.9 229.5 92.9H288.8C290.3 92.9 291.5 91.7 291.5 90.2C291.5 88.7 290.2 87.5 288.7 87.5Z" fill="#E8E8FF"/>
        <path d="M285.6 78.5H232.7C231.2 78.5 230 79.7 230 81.2C230 82.7 231.2 83.9 232.7 83.9H285.6C287.1 83.9 288.3 82.7 288.3 81.2C288.3 79.7 287.1 78.5 285.6 78.5Z" fill="#E8E8FF"/>
        <path d="M288.3 115.9C288.3 114.4 287.1 113.2 285.6 113.2H232.7C231.2 113.2 230 114.4 230 115.9C230 117.4 231.2 118.6 232.7 118.6H285.6C287.1 118.6 288.3 117.4 288.3 115.9Z" fill="#E8E8FF"/>
        <path d="M271.3 69.7002H247C245.5 69.7002 244.3 70.9002 244.3 72.4002C244.3 73.9002 245.5 75.1002 247 75.1002H271.3C272.8 75.1002 274 73.9002 274 72.4002C274 70.9002 272.8 69.7002 271.3 69.7002Z" fill="#E8E8FF"/>
        <path d="M274 124.7C274 123.2 272.8 122 271.3 122H247C245.5 122 244.3 123.2 244.3 124.7C244.3 126.2 245.5 127.4 247 127.4H271.3C272.7 127.5 274 126.2 274 124.7Z" fill="#E8E8FF"/>
        <path d="M258.7 66.4H259.5C261 66.4 262.2 65.2 262.2 63.7C262.2 62.2 261 61 259.5 61H258.7C257.2 61 256 62.2 256 63.7C256 65.2 257.2 66.4 258.7 66.4Z" fill="#E8E8FF"/>
        <path d="M259.5 129.4H258.7C257.2 129.4 256 130.6 256 132.1C256 133.6 257.2 134.8 258.7 134.8H259.5C261 134.8 262.2 133.6 262.2 132.1C262.2 130.7 261 129.4 259.5 129.4Z" fill="#E8E8FF"/>
        <path d="M288.7 96H229.5C228 96 226.8 97.2 226.8 98.7C226.8 100.2 228 101.4 229.5 101.4H288.8C290.3 101.4 291.5 100.2 291.5 98.7C291.5 97.3 290.2 96 288.7 96Z" fill="#E8E8FF"/>
        <path d="M291.5 107.4C291.5 105.9 290.3 104.7 288.8 104.7H229.5C228 104.7 226.8 105.9 226.8 107.4C226.8 108.9 228 110.1 229.5 110.1H288.8C290.2 110.2 291.5 108.9 291.5 107.4Z" fill="#E8E8FF"/>
        <path d="M263.8 29.2C263.8 30.7 265 31.9 266.5 31.9H296.1V26.5H266.5C265 26.5 263.8 27.7 263.8 29.2Z" fill="#E8E8FF"/>
        <path d="M267 20.2C267 21.7 268.2 22.9 269.7 22.9H296.1V17.5H269.7C268.2 17.5 267 18.7 267 20.2Z" fill="#E8E8FF"/>
        <path d="M267 54.9002C267 56.4002 268.2 57.6002 269.7 57.6002H296.1V52.2002H269.7C268.2 52.2002 267 53.4002 267 54.9002Z" fill="#E8E8FF"/>
        <path d="M281.3 11.4002C281.3 12.9002 282.5 14.1002 284 14.1002H296.1V8.7002H284C282.5 8.7002 281.3 9.9002 281.3 11.4002Z" fill="#E8E8FF"/>
        <path d="M281.3 63.7C281.3 65.2 282.5 66.4 284 66.4H296.1V61H284C282.5 61 281.3 62.2 281.3 63.7Z" fill="#E8E8FF"/>
        <path d="M295.7 0C294.2 0 293 1.2 293 2.7C293 4.2 294.2 5.4 295.7 5.4H296.1V0H295.7Z" fill="#E8E8FF"/>
        <path d="M293 71.1004C293 72.6004 294.2 73.8004 295.7 73.8004H296.1V68.4004H295.7C294.2 68.4004 293 69.6004 293 71.1004Z" fill="#E8E8FF"/>
        <path d="M263.8 37.7C263.8 39.2 265 40.4 266.5 40.4H296.1V35H266.5C265 35 263.8 36.2 263.8 37.7Z" fill="#E8E8FF"/>
        <path d="M263.8 46.4002C263.8 47.9002 265 49.1002 266.5 49.1002H296.1V43.7002H266.5C265 43.7002 263.8 44.9002 263.8 46.4002Z" fill="#E8E8FF"/>
        <path d="M180.3 151.2C180.3 149.7 179.1 148.5 177.6 148.5H148V153.9H177.6C179.1 153.9 180.3 152.7 180.3 151.2Z" fill="#E8E8FF"/>
        <path d="M177.2 142.2C177.2 140.7 176 139.5 174.5 139.5H148V144.9H174.4C175.9 144.9 177.2 143.7 177.2 142.2Z" fill="#E8E8FF"/>
        <path d="M177.2 176.9C177.2 175.4 176 174.2 174.5 174.2H148V179.6H174.4C175.9 179.6 177.2 178.4 177.2 176.9Z" fill="#E8E8FF"/>
        <path d="M162.8 133.4C162.8 131.9 161.6 130.7 160.1 130.7H148V136.1H160.1C161.6 136.1 162.8 134.9 162.8 133.4Z" fill="#E8E8FF"/>
        <path d="M162.8 185.7C162.8 184.2 161.6 183 160.1 183H148V188.4H160.1C161.6 188.5 162.8 187.2 162.8 185.7Z" fill="#E8E8FF"/>
        <path d="M151.1 124.7C151.1 123.2 149.9 122 148.4 122H148V127.4H148.4C149.9 127.4 151.1 126.2 151.1 124.7Z" fill="#E8E8FF"/>
        <path d="M148.4 190.5H148V195.9H148.4C149.9 195.9 151.1 194.6 151.1 193.2C151.1 191.7 149.9 190.5 148.4 190.5Z" fill="#E8E8FF"/>
        <path d="M180.3 159.8C180.3 158.3 179.1 157.1 177.6 157.1H148V162.5H177.6C179.1 162.5 180.3 161.2 180.3 159.8Z" fill="#E8E8FF"/>
        <path d="M180.3 168.4C180.3 166.9 179.1 165.7 177.6 165.7H148V171.1H177.6C179.1 171.2 180.3 169.9 180.3 168.4Z" fill="#E8E8FF"/>
        <path d="M251.6 148.5H192.4C190.9 148.5 189.7 149.7 189.7 151.2C189.7 152.7 190.9 153.9 192.4 153.9H251.7C253.2 153.9 254.4 152.7 254.4 151.2C254.4 149.7 253.1 148.5 251.6 148.5Z" fill="#E8E8FF"/>
        <path d="M248.5 139.5H195.6C194.1 139.5 192.9 140.7 192.9 142.2C192.9 143.7 194.1 144.9 195.6 144.9H248.5C250 144.9 251.2 143.7 251.2 142.2C251.2 140.7 250 139.5 248.5 139.5Z" fill="#E8E8FF"/>
        <path d="M195.6 174.2C194.1 174.2 192.9 175.4 192.9 176.9C192.9 178.4 194.1 179.6 195.6 179.6H248.5C250 179.6 251.2 178.4 251.2 176.9C251.2 175.4 250 174.2 248.5 174.2H195.6Z" fill="#E8E8FF"/>
        <path d="M234.2 130.7H209.9C208.4 130.7 207.2 131.9 207.2 133.4C207.2 134.9 208.4 136.1 209.9 136.1H234.2C235.7 136.1 236.9 134.9 236.9 133.4C236.9 131.9 235.7 130.7 234.2 130.7Z" fill="#E8E8FF"/>
        <path d="M236.9 185.7C236.9 184.2 235.7 183 234.2 183H209.9C208.4 183 207.2 184.2 207.2 185.7C207.2 187.2 208.4 188.4 209.9 188.4H234.2C235.6 188.5 236.9 187.2 236.9 185.7Z" fill="#E8E8FF"/>
        <path d="M222.4 127.4C223.9 127.4 225.1 126.2 225.1 124.7C225.1 123.2 223.9 122 222.4 122H221.6C220.1 122 218.9 123.2 218.9 124.7C218.9 126.2 220.1 127.4 221.6 127.4H222.4Z" fill="#E8E8FF"/>
        <path d="M222.4 190.4H221.6C220.1 190.4 218.9 191.6 218.9 193.1C218.9 194.6 220.1 195.8 221.6 195.8H222.4C223.9 195.8 225.1 194.6 225.1 193.1C225.1 191.7 223.9 190.4 222.4 190.4Z" fill="#E8E8FF"/>
        <path d="M251.6 157H192.4C190.9 157 189.7 158.2 189.7 159.7C189.7 161.2 190.9 162.4 192.4 162.4H251.7C253.2 162.4 254.4 161.2 254.4 159.7C254.4 158.3 253.1 157 251.6 157Z" fill="#E8E8FF"/>
        <path d="M254.4 168.4C254.4 166.9 253.2 165.7 251.7 165.7H192.4C190.9 165.7 189.7 166.9 189.7 168.4C189.7 169.9 190.9 171.1 192.4 171.1H251.7C253.1 171.2 254.4 169.9 254.4 168.4Z" fill="#E8E8FF"/>
        <path d="M214.5 209.5H155.4C153.9 209.5 152.7 210.7 152.7 212.2C152.7 213.7 153.9 214.9 155.4 214.9H214.7C216.2 214.9 217.4 213.7 217.4 212.2C217.4 210.7 216 209.5 214.5 209.5Z" fill="#E8E8FF"/>
        <path d="M155.9 203.2C155.9 204.7 157.1 205.9 158.6 205.9H211.5C213 205.9 214.2 204.7 214.2 203.2C214.2 201.7 213 200.5 211.5 200.5H158.5C157 200.5 155.9 201.7 155.9 203.2Z" fill="#E8E8FF"/>
        <path d="M211.5 235.2H158.5C157 235.2 155.8 236.4 155.8 237.9C155.8 239.4 157 240.6 158.5 240.6H211.4C212.9 240.6 214.1 239.4 214.1 237.9C214.1 236.4 213 235.2 211.5 235.2Z" fill="#E8E8FF"/>
        <path d="M170.2 194.4C170.2 195.9 171.4 197.1 172.9 197.1H197.2C198.7 197.1 199.9 195.9 199.9 194.4C199.9 192.9 198.7 191.7 197.2 191.7H172.9C171.4 191.7 170.2 192.9 170.2 194.4Z" fill="#E8E8FF"/>
        <path d="M197.2 244H172.9C171.4 244 170.2 245.2 170.2 246.7C170.2 248.2 171.4 249.4 172.9 249.4H197.2C198.6 249.5 199.9 248.2 199.9 246.7C199.9 245.2 198.7 244 197.2 244Z" fill="#E8E8FF"/>
        <path d="M184.5 188.4H185.3C186.8 188.4 188 187.2 188 185.7C188 184.2 186.8 183 185.3 183H184.5C183 183 181.8 184.2 181.8 185.7C181.8 187.2 183 188.4 184.5 188.4Z" fill="#E8E8FF"/>
        <path d="M185.4 251.4H184.6C183.1 251.4 181.9 252.6 181.9 254.1C181.9 255.6 183.1 256.8 184.6 256.8H185.4C186.9 256.8 188.1 255.6 188.1 254.1C188 252.7 186.9 251.4 185.4 251.4Z" fill="#E8E8FF"/>
        <path d="M214.5 218H155.4C153.9 218 152.7 219.2 152.7 220.7C152.7 222.2 153.9 223.4 155.4 223.4H214.7C216.2 223.4 217.4 222.2 217.4 220.7C217.4 219.3 216 218 214.5 218Z" fill="#E8E8FF"/>
        <path d="M214.7 226.7H155.4C153.9 226.7 152.7 227.9 152.7 229.4C152.7 230.9 153.9 232.1 155.4 232.1H214.7C216.1 232.2 217.4 230.9 217.4 229.4C217.4 227.9 216.2 226.7 214.7 226.7Z" fill="#E8E8FF"/>
        <path d="M288.7 209.5H229.5C228 209.5 226.8 210.7 226.8 212.2C226.8 213.7 228 214.9 229.5 214.9H288.8C290.3 214.9 291.5 213.7 291.5 212.2C291.5 210.7 290.2 209.5 288.7 209.5Z" fill="#E8E8FF"/>
        <path d="M232.7 205.9H285.6C287.1 205.9 288.3 204.7 288.3 203.2C288.3 201.7 287.1 200.5 285.6 200.5H232.7C231.2 200.5 230 201.7 230 203.2C230 204.7 231.2 205.9 232.7 205.9Z" fill="#E8E8FF"/>
        <path d="M285.6 235.2H232.7C231.2 235.2 230 236.4 230 237.9C230 239.4 231.2 240.6 232.7 240.6H285.6C287.1 240.6 288.3 239.4 288.3 237.9C288.3 236.4 287.1 235.2 285.6 235.2Z" fill="#E8E8FF"/>
        <path d="M271.3 191.7H247C245.5 191.7 244.3 192.9 244.3 194.4C244.3 195.9 245.5 197.1 247 197.1H271.3C272.8 197.1 274 195.9 274 194.4C274 192.9 272.8 191.7 271.3 191.7Z" fill="#E8E8FF"/>
        <path d="M271.3 244H247C245.5 244 244.3 245.2 244.3 246.7C244.3 248.2 245.5 249.4 247 249.4H271.3C272.7 249.5 274 248.2 274 246.7C274 245.2 272.8 244 271.3 244Z" fill="#E8E8FF"/>
        <path d="M259.5 188.4C261 188.4 262.2 187.2 262.2 185.7C262.2 184.2 261 183 259.5 183H258.7C257.2 183 256 184.2 256 185.7C256 187.2 257.2 188.4 258.7 188.4H259.5Z" fill="#E8E8FF"/>
        <path d="M259.5 251.4H258.7C257.2 251.4 256 252.6 256 254.1C256 255.6 257.2 256.8 258.7 256.8H259.5C261 256.8 262.2 255.6 262.2 254.1C262.2 252.7 261 251.4 259.5 251.4Z" fill="#E8E8FF"/>
        <path d="M288.7 218H229.5C228 218 226.8 219.2 226.8 220.7C226.8 222.2 228 223.4 229.5 223.4H288.8C290.3 223.4 291.5 222.2 291.5 220.7C291.5 219.3 290.2 218 288.7 218Z" fill="#E8E8FF"/>
        <path d="M288.8 226.7H229.5C228 226.7 226.8 227.9 226.8 229.4C226.8 230.9 228 232.1 229.5 232.1H288.8C290.2 232.2 291.5 230.9 291.5 229.4C291.5 227.9 290.3 226.7 288.8 226.7Z" fill="#E8E8FF"/>
        <path d="M263.8 151.2C263.8 152.7 265 153.9 266.5 153.9H296.1V148.5H266.5C265 148.5 263.8 149.7 263.8 151.2Z" fill="#E8E8FF"/>
        <path d="M267 142.2C267 143.7 268.2 144.9 269.7 144.9H296.1V139.5H269.7C268.2 139.5 267 140.7 267 142.2Z" fill="#E8E8FF"/>
        <path d="M267 176.9C267 178.4 268.2 179.6 269.7 179.6H296.1V174.2H269.7C268.2 174.2 267 175.4 267 176.9Z" fill="#E8E8FF"/>
        <path d="M281.3 133.4C281.3 134.9 282.5 136.1 284 136.1H296.1V130.7H284C282.5 130.7 281.3 131.9 281.3 133.4Z" fill="#E8E8FF"/>
        <path d="M281.3 185.7C281.3 187.2 282.5 188.4 284 188.4H296.1V183H284C282.5 183 281.3 184.2 281.3 185.7Z" fill="#E8E8FF"/>
        <path d="M293 124.7C293 126.2 294.2 127.4 295.7 127.4H296.1V122H295.7C294.2 122 293 123.2 293 124.7Z" fill="#E8E8FF"/>
        <path d="M293 193.1C293 194.6 294.2 195.8 295.7 195.8H296.1V190.4H295.7C294.2 190.4 293 191.6 293 193.1Z" fill="#E8E8FF"/>
        <path d="M263.8 159.7C263.8 161.2 265 162.4 266.5 162.4H296.1V157H266.5C265 157 263.8 158.2 263.8 159.7Z" fill="#E8E8FF"/>
        <path d="M263.8 168.4C263.8 169.9 265 171.1 266.5 171.1H296.1V165.7H266.5C265 165.7 263.8 166.9 263.8 168.4Z" fill="#E8E8FF"/>
    </g>
    <g clip-path="url(#clip1_141_766)">
        <path d="M328.3 29.2C328.3 27.7 327.1 26.5 325.6 26.5H296V31.9H325.6C327.1 31.9 328.3 30.7 328.3 29.2Z" fill="#E8E8FF"/>
        <path d="M325.2 20.2C325.2 18.7 324 17.5 322.5 17.5H296V22.9H322.4C323.9 22.9 325.2 21.7 325.2 20.2Z" fill="#E8E8FF"/>
        <path d="M325.2 54.9002C325.2 53.4002 324 52.2002 322.5 52.2002H296V57.6002H322.4C323.9 57.6002 325.2 56.4002 325.2 54.9002Z" fill="#E8E8FF"/>
        <path d="M310.8 11.4002C310.8 9.9002 309.6 8.7002 308.1 8.7002H296V14.1002H308.1C309.6 14.1002 310.8 12.9002 310.8 11.4002Z" fill="#E8E8FF"/>
        <path d="M310.8 63.7C310.8 62.2 309.6 61 308.1 61H296V66.4H308.1C309.6 66.5 310.8 65.2 310.8 63.7Z" fill="#E8E8FF"/>
        <path d="M299.1 2.7C299.1 1.2 297.9 0 296.4 0H296V5.4H296.4C297.9 5.4 299.1 4.2 299.1 2.7Z" fill="#E8E8FF"/>
        <path d="M299.1 71.2C299.1 69.7 297.9 68.5 296.4 68.5H296V73.9H296.4C297.9 73.9 299.1 72.6 299.1 71.2Z" fill="#E8E8FF"/>
        <path d="M328.3 37.7996C328.3 36.2996 327.1 35.0996 325.6 35.0996H296V40.4996H325.6C327.1 40.4996 328.3 39.1996 328.3 37.7996Z" fill="#E8E8FF"/>
        <path d="M328.3 46.4002C328.3 44.9002 327.1 43.7002 325.6 43.7002H296V49.1002H325.6C327.1 49.2002 328.3 47.9002 328.3 46.4002Z" fill="#E8E8FF"/>
        <path d="M340.4 31.9H399.7C401.2 31.9 402.4 30.7 402.4 29.2C402.4 27.7 401.1 26.5 399.6 26.5H340.4C338.9 26.5 337.7 27.7 337.7 29.2C337.7 30.7 338.9 31.9 340.4 31.9Z" fill="#E8E8FF"/>
        <path d="M343.6 22.9H396.5C398 22.9 399.2 21.7 399.2 20.2C399.2 18.7 398 17.5 396.5 17.5H343.6C342.1 17.5 340.9 18.7 340.9 20.2C340.9 21.7 342.1 22.9 343.6 22.9Z" fill="#E8E8FF"/>
        <path d="M399.2 54.9002C399.2 53.4002 398 52.2002 396.5 52.2002H343.6C342.1 52.2002 340.9 53.4002 340.9 54.9002C340.9 56.4002 342.1 57.6002 343.6 57.6002H396.5C398 57.6002 399.2 56.4002 399.2 54.9002Z" fill="#E8E8FF"/>
        <path d="M357.9 14.1002H382.2C383.7 14.1002 384.9 12.9002 384.9 11.4002C384.9 9.9002 383.7 8.7002 382.2 8.7002H357.9C356.4 8.7002 355.2 9.9002 355.2 11.4002C355.2 12.9002 356.4 14.1002 357.9 14.1002Z" fill="#E8E8FF"/>
        <path d="M384.9 63.7C384.9 62.2 383.7 61 382.2 61H357.9C356.4 61 355.2 62.2 355.2 63.7C355.2 65.2 356.4 66.4 357.9 66.4H382.2C383.6 66.5 384.9 65.2 384.9 63.7Z" fill="#E8E8FF"/>
        <path d="M369.6 5.4H370.4C371.9 5.4 373.1 4.2 373.1 2.7C373.1 1.2 371.9 0 370.4 0H369.6C368.1 0 366.9 1.2 366.9 2.7C366.9 4.2 368.1 5.4 369.6 5.4Z" fill="#E8E8FF"/>
        <path d="M370.4 68.4004H369.6C368.1 68.4004 366.9 69.6004 366.9 71.1004C366.9 72.6004 368.1 73.8004 369.6 73.8004H370.4C371.9 73.8004 373.1 72.6004 373.1 71.1004C373.1 69.7004 371.9 68.4004 370.4 68.4004Z" fill="#E8E8FF"/>
        <path d="M340.4 40.4H399.7C401.2 40.4 402.4 39.2 402.4 37.7C402.4 36.3 401.1 35 399.6 35H340.4C338.9 35 337.7 36.2 337.7 37.7C337.7 39.2 338.9 40.4 340.4 40.4Z" fill="#E8E8FF"/>
        <path d="M340.4 49.1002H399.7C401.1 49.2002 402.4 47.9002 402.4 46.4002C402.4 44.9002 401.2 43.7002 399.7 43.7002H340.4C338.9 43.7002 337.7 44.9002 337.7 46.4002C337.7 47.9002 338.9 49.1002 340.4 49.1002Z" fill="#E8E8FF"/>
        <path d="M300.7 90.2C300.7 91.7 301.9 92.9 303.4 92.9H362.7C364.2 92.9 365.4 91.7 365.4 90.2C365.4 88.7 364.1 87.5 362.6 87.5H303.4C301.9 87.5 300.7 88.7 300.7 90.2Z" fill="#E8E8FF"/>
        <path d="M303.9 81.2C303.9 82.7 305.1 83.9 306.6 83.9H359.5C361 83.9 362.2 82.7 362.2 81.2C362.2 79.7 361 78.5 359.5 78.5H306.5C305 78.5 303.9 79.7 303.9 81.2Z" fill="#E8E8FF"/>
        <path d="M306.5 118.6H359.4C360.9 118.6 362.1 117.4 362.1 115.9C362.1 114.4 360.9 113.2 359.4 113.2H306.5C305 113.2 303.8 114.4 303.8 115.9C303.8 117.4 305 118.6 306.5 118.6Z" fill="#E8E8FF"/>
        <path d="M318.2 72.4002C318.2 73.9002 319.4 75.1002 320.9 75.1002H345.2C346.7 75.1002 347.9 73.9002 347.9 72.4002C347.9 70.9002 346.7 69.7002 345.2 69.7002H320.9C319.4 69.7002 318.2 70.9002 318.2 72.4002Z" fill="#E8E8FF"/>
        <path d="M320.9 127.4H345.2C346.6 127.5 347.9 126.2 347.9 124.7C347.9 123.2 346.7 122 345.2 122H320.9C319.4 122 318.2 123.2 318.2 124.7C318.2 126.2 319.4 127.4 320.9 127.4Z" fill="#E8E8FF"/>
        <path d="M332.5 66.4H333.3C334.8 66.4 336 65.2 336 63.7C336 62.2 334.9 61 333.4 61H332.6C331.1 61 329.9 62.2 329.9 63.7C329.9 65.2 331 66.4 332.5 66.4Z" fill="#E8E8FF"/>
        <path d="M332.5 129.4C331 129.4 329.8 130.6 329.8 132.1C329.8 133.6 331 134.8 332.5 134.8H333.3C334.8 134.8 336 133.6 336 132.1C336 130.7 334.8 129.4 333.3 129.4H332.5Z" fill="#E8E8FF"/>
        <path d="M303.4 101.4H362.7C364.2 101.4 365.4 100.2 365.4 98.7C365.4 97.3 364.1 96 362.6 96H303.4C301.9 96 300.7 97.2 300.7 98.7C300.7 100.2 301.9 101.4 303.4 101.4Z" fill="#E8E8FF"/>
        <path d="M303.4 110.1H362.7C364.1 110.2 365.4 108.9 365.4 107.4C365.4 105.9 364.2 104.7 362.7 104.7H303.4C301.9 104.7 300.7 105.9 300.7 107.4C300.7 108.9 301.9 110.1 303.4 110.1Z" fill="#E8E8FF"/>
        <path d="M436.7 87.5H377.5C376 87.5 374.8 88.7 374.8 90.2C374.8 91.7 376 92.9 377.5 92.9H436.8C438.3 92.9 439.5 91.7 439.5 90.2C439.5 88.7 438.2 87.5 436.7 87.5Z" fill="#E8E8FF"/>
        <path d="M433.6 78.5H380.7C379.2 78.5 378 79.7 378 81.2C378 82.7 379.2 83.9 380.7 83.9H433.6C435.1 83.9 436.3 82.7 436.3 81.2C436.3 79.7 435.1 78.5 433.6 78.5Z" fill="#E8E8FF"/>
        <path d="M436.3 115.9C436.3 114.4 435.1 113.2 433.6 113.2H380.7C379.2 113.2 378 114.4 378 115.9C378 117.4 379.2 118.6 380.7 118.6H433.6C435.1 118.6 436.3 117.4 436.3 115.9Z" fill="#E8E8FF"/>
        <path d="M419.3 69.7002H395C393.5 69.7002 392.3 70.9002 392.3 72.4002C392.3 73.9002 393.5 75.1002 395 75.1002H419.3C420.8 75.1002 422 73.9002 422 72.4002C422 70.9002 420.8 69.7002 419.3 69.7002Z" fill="#E8E8FF"/>
        <path d="M422 124.7C422 123.2 420.8 122 419.3 122H395C393.5 122 392.3 123.2 392.3 124.7C392.3 126.2 393.5 127.4 395 127.4H419.3C420.7 127.5 422 126.2 422 124.7Z" fill="#E8E8FF"/>
        <path d="M406.7 66.4H407.5C409 66.4 410.2 65.2 410.2 63.7C410.2 62.2 409 61 407.5 61H406.7C405.2 61 404 62.2 404 63.7C404 65.2 405.2 66.4 406.7 66.4Z" fill="#E8E8FF"/>
        <path d="M407.5 129.4H406.7C405.2 129.4 404 130.6 404 132.1C404 133.6 405.2 134.8 406.7 134.8H407.5C409 134.8 410.2 133.6 410.2 132.1C410.2 130.7 409 129.4 407.5 129.4Z" fill="#E8E8FF"/>
        <path d="M436.7 96H377.5C376 96 374.8 97.2 374.8 98.7C374.8 100.2 376 101.4 377.5 101.4H436.8C438.3 101.4 439.5 100.2 439.5 98.7C439.5 97.3 438.2 96 436.7 96Z" fill="#E8E8FF"/>
        <path d="M439.5 107.4C439.5 105.9 438.3 104.7 436.8 104.7H377.5C376 104.7 374.8 105.9 374.8 107.4C374.8 108.9 376 110.1 377.5 110.1H436.8C438.2 110.2 439.5 108.9 439.5 107.4Z" fill="#E8E8FF"/>
        <path d="M411.8 29.2C411.8 30.7 413 31.9 414.5 31.9H444.1V26.5H414.5C413 26.5 411.8 27.7 411.8 29.2Z" fill="#E8E8FF"/>
        <path d="M415 20.2C415 21.7 416.2 22.9 417.7 22.9H444.1V17.5H417.7C416.2 17.5 415 18.7 415 20.2Z" fill="#E8E8FF"/>
        <path d="M415 54.9002C415 56.4002 416.2 57.6002 417.7 57.6002H444.1V52.2002H417.7C416.2 52.2002 415 53.4002 415 54.9002Z" fill="#E8E8FF"/>
        <path d="M429.3 11.4002C429.3 12.9002 430.5 14.1002 432 14.1002H444.1V8.7002H432C430.5 8.7002 429.3 9.9002 429.3 11.4002Z" fill="#E8E8FF"/>
        <path d="M429.3 63.7C429.3 65.2 430.5 66.4 432 66.4H444.1V61H432C430.5 61 429.3 62.2 429.3 63.7Z" fill="#E8E8FF"/>
        <path d="M443.7 0C442.2 0 441 1.2 441 2.7C441 4.2 442.2 5.4 443.7 5.4H444.1V0H443.7Z" fill="#E8E8FF"/>
        <path d="M441 71.1004C441 72.6004 442.2 73.8004 443.7 73.8004H444.1V68.4004H443.7C442.2 68.4004 441 69.6004 441 71.1004Z" fill="#E8E8FF"/>
        <path d="M411.8 37.7C411.8 39.2 413 40.4 414.5 40.4H444.1V35H414.5C413 35 411.8 36.2 411.8 37.7Z" fill="#E8E8FF"/>
        <path d="M411.8 46.4002C411.8 47.9002 413 49.1002 414.5 49.1002H444.1V43.7002H414.5C413 43.7002 411.8 44.9002 411.8 46.4002Z" fill="#E8E8FF"/>
        <path d="M328.3 151.2C328.3 149.7 327.1 148.5 325.6 148.5H296V153.9H325.6C327.1 153.9 328.3 152.7 328.3 151.2Z" fill="#E8E8FF"/>
        <path d="M325.2 142.2C325.2 140.7 324 139.5 322.5 139.5H296V144.9H322.4C323.9 144.9 325.2 143.7 325.2 142.2Z" fill="#E8E8FF"/>
        <path d="M325.2 176.9C325.2 175.4 324 174.2 322.5 174.2H296V179.6H322.4C323.9 179.6 325.2 178.4 325.2 176.9Z" fill="#E8E8FF"/>
        <path d="M310.8 133.4C310.8 131.9 309.6 130.7 308.1 130.7H296V136.1H308.1C309.6 136.1 310.8 134.9 310.8 133.4Z" fill="#E8E8FF"/>
        <path d="M310.8 185.7C310.8 184.2 309.6 183 308.1 183H296V188.4H308.1C309.6 188.5 310.8 187.2 310.8 185.7Z" fill="#E8E8FF"/>
        <path d="M299.1 124.7C299.1 123.2 297.9 122 296.4 122H296V127.4H296.4C297.9 127.4 299.1 126.2 299.1 124.7Z" fill="#E8E8FF"/>
        <path d="M296.4 190.5H296V195.9H296.4C297.9 195.9 299.1 194.6 299.1 193.2C299.1 191.7 297.9 190.5 296.4 190.5Z" fill="#E8E8FF"/>
        <path d="M328.3 159.8C328.3 158.3 327.1 157.1 325.6 157.1H296V162.5H325.6C327.1 162.5 328.3 161.2 328.3 159.8Z" fill="#E8E8FF"/>
        <path d="M328.3 168.4C328.3 166.9 327.1 165.7 325.6 165.7H296V171.1H325.6C327.1 171.2 328.3 169.9 328.3 168.4Z" fill="#E8E8FF"/>
        <path d="M399.6 148.5H340.4C338.9 148.5 337.7 149.7 337.7 151.2C337.7 152.7 338.9 153.9 340.4 153.9H399.7C401.2 153.9 402.4 152.7 402.4 151.2C402.4 149.7 401.1 148.5 399.6 148.5Z" fill="#E8E8FF"/>
        <path d="M396.5 139.5H343.6C342.1 139.5 340.9 140.7 340.9 142.2C340.9 143.7 342.1 144.9 343.6 144.9H396.5C398 144.9 399.2 143.7 399.2 142.2C399.2 140.7 398 139.5 396.5 139.5Z" fill="#E8E8FF"/>
        <path d="M343.6 174.2C342.1 174.2 340.9 175.4 340.9 176.9C340.9 178.4 342.1 179.6 343.6 179.6H396.5C398 179.6 399.2 178.4 399.2 176.9C399.2 175.4 398 174.2 396.5 174.2H343.6Z" fill="#E8E8FF"/>
        <path d="M382.2 130.7H357.9C356.4 130.7 355.2 131.9 355.2 133.4C355.2 134.9 356.4 136.1 357.9 136.1H382.2C383.7 136.1 384.9 134.9 384.9 133.4C384.9 131.9 383.7 130.7 382.2 130.7Z" fill="#E8E8FF"/>
        <path d="M384.9 185.7C384.9 184.2 383.7 183 382.2 183H357.9C356.4 183 355.2 184.2 355.2 185.7C355.2 187.2 356.4 188.4 357.9 188.4H382.2C383.6 188.5 384.9 187.2 384.9 185.7Z" fill="#E8E8FF"/>
        <path d="M370.4 127.4C371.9 127.4 373.1 126.2 373.1 124.7C373.1 123.2 371.9 122 370.4 122H369.6C368.1 122 366.9 123.2 366.9 124.7C366.9 126.2 368.1 127.4 369.6 127.4H370.4Z" fill="#E8E8FF"/>
        <path d="M370.4 190.4H369.6C368.1 190.4 366.9 191.6 366.9 193.1C366.9 194.6 368.1 195.8 369.6 195.8H370.4C371.9 195.8 373.1 194.6 373.1 193.1C373.1 191.7 371.9 190.4 370.4 190.4Z" fill="#E8E8FF"/>
        <path d="M399.6 157H340.4C338.9 157 337.7 158.2 337.7 159.7C337.7 161.2 338.9 162.4 340.4 162.4H399.7C401.2 162.4 402.4 161.2 402.4 159.7C402.4 158.3 401.1 157 399.6 157Z" fill="#E8E8FF"/>
        <path d="M402.4 168.4C402.4 166.9 401.2 165.7 399.7 165.7H340.4C338.9 165.7 337.7 166.9 337.7 168.4C337.7 169.9 338.9 171.1 340.4 171.1H399.7C401.1 171.2 402.4 169.9 402.4 168.4Z" fill="#E8E8FF"/>
        <path d="M362.5 209.5H303.4C301.9 209.5 300.7 210.7 300.7 212.2C300.7 213.7 301.9 214.9 303.4 214.9H362.7C364.2 214.9 365.4 213.7 365.4 212.2C365.4 210.7 364 209.5 362.5 209.5Z" fill="#E8E8FF"/>
        <path d="M303.9 203.2C303.9 204.7 305.1 205.9 306.6 205.9H359.5C361 205.9 362.2 204.7 362.2 203.2C362.2 201.7 361 200.5 359.5 200.5H306.5C305 200.5 303.9 201.7 303.9 203.2Z" fill="#E8E8FF"/>
        <path d="M359.5 235.2H306.5C305 235.2 303.8 236.4 303.8 237.9C303.8 239.4 305 240.6 306.5 240.6H359.4C360.9 240.6 362.1 239.4 362.1 237.9C362.1 236.4 361 235.2 359.5 235.2Z" fill="#E8E8FF"/>
        <path d="M318.2 194.4C318.2 195.9 319.4 197.1 320.9 197.1H345.2C346.7 197.1 347.9 195.9 347.9 194.4C347.9 192.9 346.7 191.7 345.2 191.7H320.9C319.4 191.7 318.2 192.9 318.2 194.4Z" fill="#E8E8FF"/>
        <path d="M345.2 244H320.9C319.4 244 318.2 245.2 318.2 246.7C318.2 248.2 319.4 249.4 320.9 249.4H345.2C346.6 249.5 347.9 248.2 347.9 246.7C347.9 245.2 346.7 244 345.2 244Z" fill="#E8E8FF"/>
        <path d="M332.5 188.4H333.3C334.8 188.4 336 187.2 336 185.7C336 184.2 334.8 183 333.3 183H332.5C331 183 329.8 184.2 329.8 185.7C329.8 187.2 331 188.4 332.5 188.4Z" fill="#E8E8FF"/>
        <path d="M333.4 251.4H332.6C331.1 251.4 329.9 252.6 329.9 254.1C329.9 255.6 331.1 256.8 332.6 256.8H333.4C334.9 256.8 336.1 255.6 336.1 254.1C336 252.7 334.9 251.4 333.4 251.4Z" fill="#E8E8FF"/>
        <path d="M362.5 218H303.4C301.9 218 300.7 219.2 300.7 220.7C300.7 222.2 301.9 223.4 303.4 223.4H362.7C364.2 223.4 365.4 222.2 365.4 220.7C365.4 219.3 364 218 362.5 218Z" fill="#E8E8FF"/>
        <path d="M362.7 226.7H303.4C301.9 226.7 300.7 227.9 300.7 229.4C300.7 230.9 301.9 232.1 303.4 232.1H362.7C364.1 232.2 365.4 230.9 365.4 229.4C365.4 227.9 364.2 226.7 362.7 226.7Z" fill="#E8E8FF"/>
        <path d="M436.7 209.5H377.5C376 209.5 374.8 210.7 374.8 212.2C374.8 213.7 376 214.9 377.5 214.9H436.8C438.3 214.9 439.5 213.7 439.5 212.2C439.5 210.7 438.2 209.5 436.7 209.5Z" fill="#E8E8FF"/>
        <path d="M380.7 205.9H433.6C435.1 205.9 436.3 204.7 436.3 203.2C436.3 201.7 435.1 200.5 433.6 200.5H380.7C379.2 200.5 378 201.7 378 203.2C378 204.7 379.2 205.9 380.7 205.9Z" fill="#E8E8FF"/>
        <path d="M433.6 235.2H380.7C379.2 235.2 378 236.4 378 237.9C378 239.4 379.2 240.6 380.7 240.6H433.6C435.1 240.6 436.3 239.4 436.3 237.9C436.3 236.4 435.1 235.2 433.6 235.2Z" fill="#E8E8FF"/>
        <path d="M419.3 191.7H395C393.5 191.7 392.3 192.9 392.3 194.4C392.3 195.9 393.5 197.1 395 197.1H419.3C420.8 197.1 422 195.9 422 194.4C422 192.9 420.8 191.7 419.3 191.7Z" fill="#E8E8FF"/>
        <path d="M419.3 244H395C393.5 244 392.3 245.2 392.3 246.7C392.3 248.2 393.5 249.4 395 249.4H419.3C420.7 249.5 422 248.2 422 246.7C422 245.2 420.8 244 419.3 244Z" fill="#E8E8FF"/>
        <path d="M407.5 188.4C409 188.4 410.2 187.2 410.2 185.7C410.2 184.2 409 183 407.5 183H406.7C405.2 183 404 184.2 404 185.7C404 187.2 405.2 188.4 406.7 188.4H407.5Z" fill="#E8E8FF"/>
        <path d="M407.5 251.4H406.7C405.2 251.4 404 252.6 404 254.1C404 255.6 405.2 256.8 406.7 256.8H407.5C409 256.8 410.2 255.6 410.2 254.1C410.2 252.7 409 251.4 407.5 251.4Z" fill="#E8E8FF"/>
        <path d="M436.7 218H377.5C376 218 374.8 219.2 374.8 220.7C374.8 222.2 376 223.4 377.5 223.4H436.8C438.3 223.4 439.5 222.2 439.5 220.7C439.5 219.3 438.2 218 436.7 218Z" fill="#E8E8FF"/>
        <path d="M436.8 226.7H377.5C376 226.7 374.8 227.9 374.8 229.4C374.8 230.9 376 232.1 377.5 232.1H436.8C438.2 232.2 439.5 230.9 439.5 229.4C439.5 227.9 438.3 226.7 436.8 226.7Z" fill="#E8E8FF"/>
        <path d="M411.8 151.2C411.8 152.7 413 153.9 414.5 153.9H444.1V148.5H414.5C413 148.5 411.8 149.7 411.8 151.2Z" fill="#E8E8FF"/>
        <path d="M415 142.2C415 143.7 416.2 144.9 417.7 144.9H444.1V139.5H417.7C416.2 139.5 415 140.7 415 142.2Z" fill="#E8E8FF"/>
        <path d="M415 176.9C415 178.4 416.2 179.6 417.7 179.6H444.1V174.2H417.7C416.2 174.2 415 175.4 415 176.9Z" fill="#E8E8FF"/>
        <path d="M429.3 133.4C429.3 134.9 430.5 136.1 432 136.1H444.1V130.7H432C430.5 130.7 429.3 131.9 429.3 133.4Z" fill="#E8E8FF"/>
        <path d="M429.3 185.7C429.3 187.2 430.5 188.4 432 188.4H444.1V183H432C430.5 183 429.3 184.2 429.3 185.7Z" fill="#E8E8FF"/>
        <path d="M441 124.7C441 126.2 442.2 127.4 443.7 127.4H444.1V122H443.7C442.2 122 441 123.2 441 124.7Z" fill="#E8E8FF"/>
        <path d="M441 193.1C441 194.6 442.2 195.8 443.7 195.8H444.1V190.4H443.7C442.2 190.4 441 191.6 441 193.1Z" fill="#E8E8FF"/>
        <path d="M411.8 159.7C411.8 161.2 413 162.4 414.5 162.4H444.1V157H414.5C413 157 411.8 158.2 411.8 159.7Z" fill="#E8E8FF"/>
        <path d="M411.8 168.4C411.8 169.9 413 171.1 414.5 171.1H444.1V165.7H414.5C413 165.7 411.8 166.9 411.8 168.4Z" fill="#E8E8FF"/>
    </g>
    <g clip-path="url(#clip2_141_766)">
        <path d="M32.2999 29.2C32.2999 27.7 31.0999 26.5 29.5999 26.5H-0.00012207V31.9H29.5999C31.0999 31.9 32.2999 30.7 32.2999 29.2Z" fill="#E8E8FF"/>
        <path d="M29.1999 20.2C29.1999 18.7 27.9999 17.5 26.4999 17.5H-0.00012207V22.9H26.3999C27.8999 22.9 29.1999 21.7 29.1999 20.2Z" fill="#E8E8FF"/>
        <path d="M29.1999 54.9002C29.1999 53.4002 27.9999 52.2002 26.4999 52.2002H-0.00012207V57.6002H26.3999C27.8999 57.6002 29.1999 56.4002 29.1999 54.9002Z" fill="#E8E8FF"/>
        <path d="M14.7999 11.4002C14.7999 9.9002 13.5999 8.7002 12.0999 8.7002H-0.00012207V14.1002H12.0999C13.5999 14.1002 14.7999 12.9002 14.7999 11.4002Z" fill="#E8E8FF"/>
        <path d="M14.7999 63.7C14.7999 62.2 13.5999 61 12.0999 61H-0.00012207V66.4H12.0999C13.5999 66.5 14.7999 65.2 14.7999 63.7Z" fill="#E8E8FF"/>
        <path d="M3.09988 2.7C3.09988 1.2 1.89988 0 0.399878 0H-0.00012207V5.4H0.399878C1.89988 5.4 3.09988 4.2 3.09988 2.7Z" fill="#E8E8FF"/>
        <path d="M3.09988 71.2C3.09988 69.7 1.89988 68.5 0.399878 68.5H-0.00012207V73.9H0.399878C1.89988 73.9 3.09988 72.6 3.09988 71.2Z" fill="#E8E8FF"/>
        <path d="M32.2999 37.7996C32.2999 36.2996 31.0999 35.0996 29.5999 35.0996H-0.00012207V40.4996H29.5999C31.0999 40.4996 32.2999 39.1996 32.2999 37.7996Z" fill="#E8E8FF"/>
        <path d="M32.2999 46.4002C32.2999 44.9002 31.0999 43.7002 29.5999 43.7002H-0.00012207V49.1002H29.5999C31.0999 49.2002 32.2999 47.9002 32.2999 46.4002Z" fill="#E8E8FF"/>
        <path d="M44.3999 31.9H103.7C105.2 31.9 106.4 30.7 106.4 29.2C106.4 27.7 105.1 26.5 103.6 26.5H44.3999C42.8999 26.5 41.6999 27.7 41.6999 29.2C41.6999 30.7 42.8999 31.9 44.3999 31.9Z" fill="#E8E8FF"/>
        <path d="M47.5999 22.9H100.5C102 22.9 103.2 21.7 103.2 20.2C103.2 18.7 102 17.5 100.5 17.5H47.5999C46.0999 17.5 44.8999 18.7 44.8999 20.2C44.8999 21.7 46.0999 22.9 47.5999 22.9Z" fill="#E8E8FF"/>
        <path d="M103.2 54.9002C103.2 53.4002 102 52.2002 100.5 52.2002H47.5999C46.0999 52.2002 44.8999 53.4002 44.8999 54.9002C44.8999 56.4002 46.0999 57.6002 47.5999 57.6002H100.5C102 57.6002 103.2 56.4002 103.2 54.9002Z" fill="#E8E8FF"/>
        <path d="M61.8999 14.1002H86.1999C87.6999 14.1002 88.8999 12.9002 88.8999 11.4002C88.8999 9.9002 87.6999 8.7002 86.1999 8.7002H61.8999C60.3999 8.7002 59.1999 9.9002 59.1999 11.4002C59.1999 12.9002 60.3999 14.1002 61.8999 14.1002Z" fill="#E8E8FF"/>
        <path d="M88.8999 63.7C88.8999 62.2 87.6999 61 86.1999 61H61.8999C60.3999 61 59.1999 62.2 59.1999 63.7C59.1999 65.2 60.3999 66.4 61.8999 66.4H86.1999C87.5999 66.5 88.8999 65.2 88.8999 63.7Z" fill="#E8E8FF"/>
        <path d="M73.5999 5.4H74.3999C75.8999 5.4 77.0999 4.2 77.0999 2.7C77.0999 1.2 75.8999 0 74.3999 0H73.5999C72.0999 0 70.8999 1.2 70.8999 2.7C70.8999 4.2 72.0999 5.4 73.5999 5.4Z" fill="#E8E8FF"/>
        <path d="M74.3999 68.4004H73.5999C72.0999 68.4004 70.8999 69.6004 70.8999 71.1004C70.8999 72.6004 72.0999 73.8004 73.5999 73.8004H74.3999C75.8999 73.8004 77.0999 72.6004 77.0999 71.1004C77.0999 69.7004 75.8999 68.4004 74.3999 68.4004Z" fill="#E8E8FF"/>
        <path d="M44.3999 40.4H103.7C105.2 40.4 106.4 39.2 106.4 37.7C106.4 36.3 105.1 35 103.6 35H44.3999C42.8999 35 41.6999 36.2 41.6999 37.7C41.6999 39.2 42.8999 40.4 44.3999 40.4Z" fill="#E8E8FF"/>
        <path d="M44.3999 49.1002H103.7C105.1 49.2002 106.4 47.9002 106.4 46.4002C106.4 44.9002 105.2 43.7002 103.7 43.7002H44.3999C42.8999 43.7002 41.6999 44.9002 41.6999 46.4002C41.6999 47.9002 42.8999 49.1002 44.3999 49.1002Z" fill="#E8E8FF"/>
        <path d="M4.69989 90.2C4.69989 91.7 5.89989 92.9 7.39989 92.9H66.6999C68.1999 92.9 69.3999 91.7 69.3999 90.2C69.3999 88.7 68.0999 87.5 66.5999 87.5H7.39989C5.89989 87.5 4.69989 88.7 4.69989 90.2Z" fill="#E8E8FF"/>
        <path d="M7.8999 81.2C7.8999 82.7 9.0999 83.9 10.5999 83.9H63.4999C64.9999 83.9 66.1999 82.7 66.1999 81.2C66.1999 79.7 64.9999 78.5 63.4999 78.5H10.4999C8.9999 78.5 7.8999 79.7 7.8999 81.2Z" fill="#E8E8FF"/>
        <path d="M10.4999 118.6H63.3999C64.8999 118.6 66.0999 117.4 66.0999 115.9C66.0999 114.4 64.8999 113.2 63.3999 113.2H10.4999C8.99987 113.2 7.79987 114.4 7.79987 115.9C7.79987 117.4 8.99987 118.6 10.4999 118.6Z" fill="#E8E8FF"/>
        <path d="M22.1999 72.4002C22.1999 73.9002 23.3999 75.1002 24.8999 75.1002H49.1999C50.6999 75.1002 51.8999 73.9002 51.8999 72.4002C51.8999 70.9002 50.6999 69.7002 49.1999 69.7002H24.8999C23.3999 69.7002 22.1999 70.9002 22.1999 72.4002Z" fill="#E8E8FF"/>
        <path d="M24.8999 127.4H49.1999C50.5999 127.5 51.8999 126.2 51.8999 124.7C51.8999 123.2 50.6999 122 49.1999 122H24.8999C23.3999 122 22.1999 123.2 22.1999 124.7C22.1999 126.2 23.3999 127.4 24.8999 127.4Z" fill="#E8E8FF"/>
        <path d="M36.4999 66.4H37.2999C38.7999 66.4 39.9999 65.2 39.9999 63.7C39.9999 62.2 38.8999 61 37.3999 61H36.5999C35.0999 61 33.8999 62.2 33.8999 63.7C33.8999 65.2 34.9999 66.4 36.4999 66.4Z" fill="#E8E8FF"/>
        <path d="M36.4999 129.4C34.9999 129.4 33.7999 130.6 33.7999 132.1C33.7999 133.6 34.9999 134.8 36.4999 134.8H37.2999C38.7999 134.8 39.9999 133.6 39.9999 132.1C39.9999 130.7 38.7999 129.4 37.2999 129.4H36.4999Z" fill="#E8E8FF"/>
        <path d="M7.39989 101.4H66.6999C68.1999 101.4 69.3999 100.2 69.3999 98.7C69.3999 97.3 68.0999 96 66.5999 96H7.39989C5.89989 96 4.69989 97.2 4.69989 98.7C4.69989 100.2 5.89989 101.4 7.39989 101.4Z" fill="#E8E8FF"/>
        <path d="M7.39989 110.1H66.6999C68.0999 110.2 69.3999 108.9 69.3999 107.4C69.3999 105.9 68.1999 104.7 66.6999 104.7H7.39989C5.89989 104.7 4.69989 105.9 4.69989 107.4C4.69989 108.9 5.89989 110.1 7.39989 110.1Z" fill="#E8E8FF"/>
        <path d="M140.7 87.5H81.4999C79.9999 87.5 78.7999 88.7 78.7999 90.2C78.7999 91.7 79.9999 92.9 81.4999 92.9H140.8C142.3 92.9 143.5 91.7 143.5 90.2C143.5 88.7 142.2 87.5 140.7 87.5Z" fill="#E8E8FF"/>
        <path d="M137.6 78.5H84.6999C83.1999 78.5 81.9999 79.7 81.9999 81.2C81.9999 82.7 83.1999 83.9 84.6999 83.9H137.6C139.1 83.9 140.3 82.7 140.3 81.2C140.3 79.7 139.1 78.5 137.6 78.5Z" fill="#E8E8FF"/>
        <path d="M140.3 115.9C140.3 114.4 139.1 113.2 137.6 113.2H84.6999C83.1999 113.2 81.9999 114.4 81.9999 115.9C81.9999 117.4 83.1999 118.6 84.6999 118.6H137.6C139.1 118.6 140.3 117.4 140.3 115.9Z" fill="#E8E8FF"/>
        <path d="M123.3 69.7002H98.9999C97.4999 69.7002 96.2999 70.9002 96.2999 72.4002C96.2999 73.9002 97.4999 75.1002 98.9999 75.1002H123.3C124.8 75.1002 126 73.9002 126 72.4002C126 70.9002 124.8 69.7002 123.3 69.7002Z" fill="#E8E8FF"/>
        <path d="M126 124.7C126 123.2 124.8 122 123.3 122H98.9999C97.4999 122 96.2999 123.2 96.2999 124.7C96.2999 126.2 97.4999 127.4 98.9999 127.4H123.3C124.7 127.5 126 126.2 126 124.7Z" fill="#E8E8FF"/>
        <path d="M110.7 66.4H111.5C113 66.4 114.2 65.2 114.2 63.7C114.2 62.2 113 61 111.5 61H110.7C109.2 61 108 62.2 108 63.7C108 65.2 109.2 66.4 110.7 66.4Z" fill="#E8E8FF"/>
        <path d="M111.5 129.4H110.7C109.2 129.4 108 130.6 108 132.1C108 133.6 109.2 134.8 110.7 134.8H111.5C113 134.8 114.2 133.6 114.2 132.1C114.2 130.7 113 129.4 111.5 129.4Z" fill="#E8E8FF"/>
        <path d="M140.7 96H81.4999C79.9999 96 78.7999 97.2 78.7999 98.7C78.7999 100.2 79.9999 101.4 81.4999 101.4H140.8C142.3 101.4 143.5 100.2 143.5 98.7C143.5 97.3 142.2 96 140.7 96Z" fill="#E8E8FF"/>
        <path d="M143.5 107.4C143.5 105.9 142.3 104.7 140.8 104.7H81.4999C79.9999 104.7 78.7999 105.9 78.7999 107.4C78.7999 108.9 79.9999 110.1 81.4999 110.1H140.8C142.2 110.2 143.5 108.9 143.5 107.4Z" fill="#E8E8FF"/>
        <path d="M115.8 29.2C115.8 30.7 117 31.9 118.5 31.9H148.1V26.5H118.5C117 26.5 115.8 27.7 115.8 29.2Z" fill="#E8E8FF"/>
        <path d="M119 20.2C119 21.7 120.2 22.9 121.7 22.9H148.1V17.5H121.7C120.2 17.5 119 18.7 119 20.2Z" fill="#E8E8FF"/>
        <path d="M119 54.9002C119 56.4002 120.2 57.6002 121.7 57.6002H148.1V52.2002H121.7C120.2 52.2002 119 53.4002 119 54.9002Z" fill="#E8E8FF"/>
        <path d="M133.3 11.4002C133.3 12.9002 134.5 14.1002 136 14.1002H148.1V8.7002H136C134.5 8.7002 133.3 9.9002 133.3 11.4002Z" fill="#E8E8FF"/>
        <path d="M133.3 63.7C133.3 65.2 134.5 66.4 136 66.4H148.1V61H136C134.5 61 133.3 62.2 133.3 63.7Z" fill="#E8E8FF"/>
        <path d="M147.7 0C146.2 0 145 1.2 145 2.7C145 4.2 146.2 5.4 147.7 5.4H148.1V0H147.7Z" fill="#E8E8FF"/>
        <path d="M145 71.1004C145 72.6004 146.2 73.8004 147.7 73.8004H148.1V68.4004H147.7C146.2 68.4004 145 69.6004 145 71.1004Z" fill="#E8E8FF"/>
        <path d="M115.8 37.7C115.8 39.2 117 40.4 118.5 40.4H148.1V35H118.5C117 35 115.8 36.2 115.8 37.7Z" fill="#E8E8FF"/>
        <path d="M115.8 46.4002C115.8 47.9002 117 49.1002 118.5 49.1002H148.1V43.7002H118.5C117 43.7002 115.8 44.9002 115.8 46.4002Z" fill="#E8E8FF"/>
        <path d="M32.2999 151.2C32.2999 149.7 31.0999 148.5 29.5999 148.5H-0.00012207V153.9H29.5999C31.0999 153.9 32.2999 152.7 32.2999 151.2Z" fill="#E8E8FF"/>
        <path d="M29.1999 142.2C29.1999 140.7 27.9999 139.5 26.4999 139.5H-0.00012207V144.9H26.3999C27.8999 144.9 29.1999 143.7 29.1999 142.2Z" fill="#E8E8FF"/>
        <path d="M29.1999 176.9C29.1999 175.4 27.9999 174.2 26.4999 174.2H-0.00012207V179.6H26.3999C27.8999 179.6 29.1999 178.4 29.1999 176.9Z" fill="#E8E8FF"/>
        <path d="M14.7999 133.4C14.7999 131.9 13.5999 130.7 12.0999 130.7H-0.00012207V136.1H12.0999C13.5999 136.1 14.7999 134.9 14.7999 133.4Z" fill="#E8E8FF"/>
        <path d="M14.7999 185.7C14.7999 184.2 13.5999 183 12.0999 183H-0.00012207V188.4H12.0999C13.5999 188.5 14.7999 187.2 14.7999 185.7Z" fill="#E8E8FF"/>
        <path d="M3.09988 124.7C3.09988 123.2 1.89988 122 0.399878 122H-0.00012207V127.4H0.399878C1.89988 127.4 3.09988 126.2 3.09988 124.7Z" fill="#E8E8FF"/>
        <path d="M0.399878 190.5H-0.00012207V195.9H0.399878C1.89988 195.9 3.09988 194.6 3.09988 193.2C3.09988 191.7 1.89988 190.5 0.399878 190.5Z" fill="#E8E8FF"/>
        <path d="M32.2999 159.8C32.2999 158.3 31.0999 157.1 29.5999 157.1H-0.00012207V162.5H29.5999C31.0999 162.5 32.2999 161.2 32.2999 159.8Z" fill="#E8E8FF"/>
        <path d="M32.2999 168.4C32.2999 166.9 31.0999 165.7 29.5999 165.7H-0.00012207V171.1H29.5999C31.0999 171.2 32.2999 169.9 32.2999 168.4Z" fill="#E8E8FF"/>
        <path d="M103.6 148.5H44.3999C42.8999 148.5 41.6999 149.7 41.6999 151.2C41.6999 152.7 42.8999 153.9 44.3999 153.9H103.7C105.2 153.9 106.4 152.7 106.4 151.2C106.4 149.7 105.1 148.5 103.6 148.5Z" fill="#E8E8FF"/>
        <path d="M100.5 139.5H47.5999C46.0999 139.5 44.8999 140.7 44.8999 142.2C44.8999 143.7 46.0999 144.9 47.5999 144.9H100.5C102 144.9 103.2 143.7 103.2 142.2C103.2 140.7 102 139.5 100.5 139.5Z" fill="#E8E8FF"/>
        <path d="M47.5999 174.2C46.0999 174.2 44.8999 175.4 44.8999 176.9C44.8999 178.4 46.0999 179.6 47.5999 179.6H100.5C102 179.6 103.2 178.4 103.2 176.9C103.2 175.4 102 174.2 100.5 174.2H47.5999Z" fill="#E8E8FF"/>
        <path d="M86.1999 130.7H61.8999C60.3999 130.7 59.1999 131.9 59.1999 133.4C59.1999 134.9 60.3999 136.1 61.8999 136.1H86.1999C87.6999 136.1 88.8999 134.9 88.8999 133.4C88.8999 131.9 87.6999 130.7 86.1999 130.7Z" fill="#E8E8FF"/>
        <path d="M88.8999 185.7C88.8999 184.2 87.6999 183 86.1999 183H61.8999C60.3999 183 59.1999 184.2 59.1999 185.7C59.1999 187.2 60.3999 188.4 61.8999 188.4H86.1999C87.5999 188.5 88.8999 187.2 88.8999 185.7Z" fill="#E8E8FF"/>
        <path d="M74.3999 127.4C75.8999 127.4 77.0999 126.2 77.0999 124.7C77.0999 123.2 75.8999 122 74.3999 122H73.5999C72.0999 122 70.8999 123.2 70.8999 124.7C70.8999 126.2 72.0999 127.4 73.5999 127.4H74.3999Z" fill="#E8E8FF"/>
        <path d="M74.3999 190.4H73.5999C72.0999 190.4 70.8999 191.6 70.8999 193.1C70.8999 194.6 72.0999 195.8 73.5999 195.8H74.3999C75.8999 195.8 77.0999 194.6 77.0999 193.1C77.0999 191.7 75.8999 190.4 74.3999 190.4Z" fill="#E8E8FF"/>
        <path d="M103.6 157H44.3999C42.8999 157 41.6999 158.2 41.6999 159.7C41.6999 161.2 42.8999 162.4 44.3999 162.4H103.7C105.2 162.4 106.4 161.2 106.4 159.7C106.4 158.3 105.1 157 103.6 157Z" fill="#E8E8FF"/>
        <path d="M106.4 168.4C106.4 166.9 105.2 165.7 103.7 165.7H44.3999C42.8999 165.7 41.6999 166.9 41.6999 168.4C41.6999 169.9 42.8999 171.1 44.3999 171.1H103.7C105.1 171.2 106.4 169.9 106.4 168.4Z" fill="#E8E8FF"/>
        <path d="M66.4999 209.5H7.39989C5.89989 209.5 4.69989 210.7 4.69989 212.2C4.69989 213.7 5.89989 214.9 7.39989 214.9H66.6999C68.1999 214.9 69.3999 213.7 69.3999 212.2C69.3999 210.7 67.9999 209.5 66.4999 209.5Z" fill="#E8E8FF"/>
        <path d="M7.8999 203.2C7.8999 204.7 9.0999 205.9 10.5999 205.9H63.4999C64.9999 205.9 66.1999 204.7 66.1999 203.2C66.1999 201.7 64.9999 200.5 63.4999 200.5H10.4999C8.9999 200.5 7.8999 201.7 7.8999 203.2Z" fill="#E8E8FF"/>
        <path d="M63.4999 235.2H10.4999C8.99987 235.2 7.79987 236.4 7.79987 237.9C7.79987 239.4 8.99987 240.6 10.4999 240.6H63.3999C64.8999 240.6 66.0999 239.4 66.0999 237.9C66.0999 236.4 64.9999 235.2 63.4999 235.2Z" fill="#E8E8FF"/>
        <path d="M22.1999 194.4C22.1999 195.9 23.3999 197.1 24.8999 197.1H49.1999C50.6999 197.1 51.8999 195.9 51.8999 194.4C51.8999 192.9 50.6999 191.7 49.1999 191.7H24.8999C23.3999 191.7 22.1999 192.9 22.1999 194.4Z" fill="#E8E8FF"/>
        <path d="M49.1999 244H24.8999C23.3999 244 22.1999 245.2 22.1999 246.7C22.1999 248.2 23.3999 249.4 24.8999 249.4H49.1999C50.5999 249.5 51.8999 248.2 51.8999 246.7C51.8999 245.2 50.6999 244 49.1999 244Z" fill="#E8E8FF"/>
        <path d="M36.4999 188.4H37.2999C38.7999 188.4 39.9999 187.2 39.9999 185.7C39.9999 184.2 38.7999 183 37.2999 183H36.4999C34.9999 183 33.7999 184.2 33.7999 185.7C33.7999 187.2 34.9999 188.4 36.4999 188.4Z" fill="#E8E8FF"/>
        <path d="M37.3999 251.4H36.5999C35.0999 251.4 33.8999 252.6 33.8999 254.1C33.8999 255.6 35.0999 256.8 36.5999 256.8H37.3999C38.8999 256.8 40.0999 255.6 40.0999 254.1C39.9999 252.7 38.8999 251.4 37.3999 251.4Z" fill="#E8E8FF"/>
        <path d="M66.4999 218H7.39989C5.89989 218 4.69989 219.2 4.69989 220.7C4.69989 222.2 5.89989 223.4 7.39989 223.4H66.6999C68.1999 223.4 69.3999 222.2 69.3999 220.7C69.3999 219.3 67.9999 218 66.4999 218Z" fill="#E8E8FF"/>
        <path d="M66.6999 226.7H7.39989C5.89989 226.7 4.69989 227.9 4.69989 229.4C4.69989 230.9 5.89989 232.1 7.39989 232.1H66.6999C68.0999 232.2 69.3999 230.9 69.3999 229.4C69.3999 227.9 68.1999 226.7 66.6999 226.7Z" fill="#E8E8FF"/>
        <path d="M140.7 209.5H81.4999C79.9999 209.5 78.7999 210.7 78.7999 212.2C78.7999 213.7 79.9999 214.9 81.4999 214.9H140.8C142.3 214.9 143.5 213.7 143.5 212.2C143.5 210.7 142.2 209.5 140.7 209.5Z" fill="#E8E8FF"/>
        <path d="M84.6999 205.9H137.6C139.1 205.9 140.3 204.7 140.3 203.2C140.3 201.7 139.1 200.5 137.6 200.5H84.6999C83.1999 200.5 81.9999 201.7 81.9999 203.2C81.9999 204.7 83.1999 205.9 84.6999 205.9Z" fill="#E8E8FF"/>
        <path d="M137.6 235.2H84.6999C83.1999 235.2 81.9999 236.4 81.9999 237.9C81.9999 239.4 83.1999 240.6 84.6999 240.6H137.6C139.1 240.6 140.3 239.4 140.3 237.9C140.3 236.4 139.1 235.2 137.6 235.2Z" fill="#E8E8FF"/>
        <path d="M123.3 191.7H98.9999C97.4999 191.7 96.2999 192.9 96.2999 194.4C96.2999 195.9 97.4999 197.1 98.9999 197.1H123.3C124.8 197.1 126 195.9 126 194.4C126 192.9 124.8 191.7 123.3 191.7Z" fill="#E8E8FF"/>
        <path d="M123.3 244H98.9999C97.4999 244 96.2999 245.2 96.2999 246.7C96.2999 248.2 97.4999 249.4 98.9999 249.4H123.3C124.7 249.5 126 248.2 126 246.7C126 245.2 124.8 244 123.3 244Z" fill="#E8E8FF"/>
        <path d="M111.5 188.4C113 188.4 114.2 187.2 114.2 185.7C114.2 184.2 113 183 111.5 183H110.7C109.2 183 108 184.2 108 185.7C108 187.2 109.2 188.4 110.7 188.4H111.5Z" fill="#E8E8FF"/>
        <path d="M111.5 251.4H110.7C109.2 251.4 108 252.6 108 254.1C108 255.6 109.2 256.8 110.7 256.8H111.5C113 256.8 114.2 255.6 114.2 254.1C114.2 252.7 113 251.4 111.5 251.4Z" fill="#E8E8FF"/>
        <path d="M140.7 218H81.4999C79.9999 218 78.7999 219.2 78.7999 220.7C78.7999 222.2 79.9999 223.4 81.4999 223.4H140.8C142.3 223.4 143.5 222.2 143.5 220.7C143.5 219.3 142.2 218 140.7 218Z" fill="#E8E8FF"/>
        <path d="M140.8 226.7H81.4999C79.9999 226.7 78.7999 227.9 78.7999 229.4C78.7999 230.9 79.9999 232.1 81.4999 232.1H140.8C142.2 232.2 143.5 230.9 143.5 229.4C143.5 227.9 142.3 226.7 140.8 226.7Z" fill="#E8E8FF"/>
        <path d="M115.8 151.2C115.8 152.7 117 153.9 118.5 153.9H148.1V148.5H118.5C117 148.5 115.8 149.7 115.8 151.2Z" fill="#E8E8FF"/>
        <path d="M119 142.2C119 143.7 120.2 144.9 121.7 144.9H148.1V139.5H121.7C120.2 139.5 119 140.7 119 142.2Z" fill="#E8E8FF"/>
        <path d="M119 176.9C119 178.4 120.2 179.6 121.7 179.6H148.1V174.2H121.7C120.2 174.2 119 175.4 119 176.9Z" fill="#E8E8FF"/>
        <path d="M133.3 133.4C133.3 134.9 134.5 136.1 136 136.1H148.1V130.7H136C134.5 130.7 133.3 131.9 133.3 133.4Z" fill="#E8E8FF"/>
        <path d="M133.3 185.7C133.3 187.2 134.5 188.4 136 188.4H148.1V183H136C134.5 183 133.3 184.2 133.3 185.7Z" fill="#E8E8FF"/>
        <path d="M145 124.7C145 126.2 146.2 127.4 147.7 127.4H148.1V122H147.7C146.2 122 145 123.2 145 124.7Z" fill="#E8E8FF"/>
        <path d="M145 193.1C145 194.6 146.2 195.8 147.7 195.8H148.1V190.4H147.7C146.2 190.4 145 191.6 145 193.1Z" fill="#E8E8FF"/>
        <path d="M115.8 159.7C115.8 161.2 117 162.4 118.5 162.4H148.1V157H118.5C117 157 115.8 158.2 115.8 159.7Z" fill="#E8E8FF"/>
        <path d="M115.8 168.4C115.8 169.9 117 171.1 118.5 171.1H148.1V165.7H118.5C117 165.7 115.8 166.9 115.8 168.4Z" fill="#E8E8FF"/>
    </g>
    <defs>
        <clipPath id="clip0_141_766">
            <rect width="148.1" height="256.8" fill="white" transform="translate(148)"/>
        </clipPath>
        <clipPath id="clip1_141_766">
            <rect width="148.1" height="256.8" fill="white" transform="translate(296)"/>
        </clipPath>
        <clipPath id="clip2_141_766">
            <rect width="148.1" height="256.8" fill="white"/>
        </clipPath>
    </defs>
</svg>
